


          SolidWorks Corporation - STEP Processor Error Log
          ______________________________________________________

                       STEP Post Processor
                       ___________________


STEP File Name: \\fulterer.local\dfs\Daten\Fulterer\Projektdurchlauf\01 Projektablage\Projekte 2022\2022907\DL01\03 Technik\Daten Web\FR 775A ECD\3D Daten\FR_775_A.0400mm_16inch_ECD_closed.STEP


Die Oberflächen wurden erfolgreich zu einem Volumenkörper verarbeitet.
STEPImport ausgeführt.Die Oberflächen wurden erfolgreich zu einem Volumenkörper verarbeitet.
STEPImport ausgeführt.Die Oberflächen wurden erfolgreich zu einem Volumenkörper verarbeitet.
STEPImport ausgeführt.
Error: Volumenkörper konnte nicht von getrimmten Oberflächen erstellt werden.
STEPImport nicht erfolgreich ausgeführt.
Die Oberflächen wurden erfolgreich zu einem Volumenkörper verarbeitet.
STEPImport ausgeführt.Die Oberflächen wurden erfolgreich zu einem Volumenkörper verarbeitet.
STEPImport ausgeführt.Die Oberflächen wurden erfolgreich zu einem Volumenkörper verarbeitet.
STEPImport ausgeführt.Die Oberflächen wurden erfolgreich zu einem Volumenkörper verarbeitet.
STEPImport ausgeführt.Die Oberflächen wurden erfolgreich zu einem Volumenkörper verarbeitet.
STEPImport ausgeführt.Die Oberflächen wurden erfolgreich zu einem Volumenkörper verarbeitet.
STEPImport ausgeführt.Die Oberflächen wurden erfolgreich zu einem Volumenkörper verarbeitet.
STEPImport ausgeführt.Die Oberflächen wurden erfolgreich zu einem Volumenkörper verarbeitet.
STEPImport ausgeführt.
Error: Volumenkörper konnte nicht von getrimmten Oberflächen erstellt werden.
STEPImport nicht erfolgreich ausgeführt.
Die Oberflächen wurden erfolgreich zu einem Volumenkörper verarbeitet.
STEPImport ausgeführt.Die Oberflächen wurden erfolgreich zu einem Volumenkörper verarbeitet.
STEPImport ausgeführt.Die Oberflächen wurden erfolgreich zu einem Volumenkörper verarbeitet.
STEPImport ausgeführt.